
##############################################
#                                            #
# HUNGRY HAPPY HIPPO SPRING BOOT APPLICATION #
#                                            #
##############################################
